2022-09-06 15:25:40.569 +07:00 [INF] User profile is available. Using '/Users/maulana/.aspnet/DataProtection-Keys' as key repository; keys will not be encrypted at rest.
2022-09-06 15:25:41.086 +07:00 [INF] Entity Framework Core 6.0.8 initialized 'AppDbContext' using provider 'Microsoft.EntityFrameworkCore.Sqlite:6.0.8' with options: None
2022-09-06 15:25:41.442 +07:00 [INF] Executed DbCommand (7ms) [Parameters=[], CommandType='"Text"', CommandTimeout='30']
PRAGMA journal_mode = 'wal';
2022-09-06 15:25:41.517 +07:00 [INF] Executed DbCommand (0ms) [Parameters=[], CommandType='"Text"', CommandTimeout='30']
CREATE TABLE "Projects" (
    "Id" INTEGER NOT NULL CONSTRAINT "PK_Projects" PRIMARY KEY AUTOINCREMENT,
    "Name" TEXT NOT NULL,
    "Priority" INTEGER NOT NULL
);
2022-09-06 15:25:41.518 +07:00 [INF] Executed DbCommand (0ms) [Parameters=[], CommandType='"Text"', CommandTimeout='30']
CREATE TABLE "ToDoItems" (
    "Id" INTEGER NOT NULL CONSTRAINT "PK_ToDoItems" PRIMARY KEY AUTOINCREMENT,
    "Title" TEXT NOT NULL,
    "Description" TEXT NOT NULL,
    "IsDone" INTEGER NOT NULL,
    "ProjectId" INTEGER NULL,
    CONSTRAINT "FK_ToDoItems_Projects_ProjectId" FOREIGN KEY ("ProjectId") REFERENCES "Projects" ("Id")
);
2022-09-06 15:25:41.518 +07:00 [INF] Executed DbCommand (0ms) [Parameters=[], CommandType='"Text"', CommandTimeout='30']
CREATE INDEX "IX_ToDoItems_ProjectId" ON "ToDoItems" ("ProjectId");
2022-09-06 15:25:41.525 +07:00 [INF] Entity Framework Core 6.0.8 initialized 'AppDbContext' using provider 'Microsoft.EntityFrameworkCore.Sqlite:6.0.8' with options: None
2022-09-06 15:25:41.637 +07:00 [INF] Executed DbCommand (0ms) [Parameters=[], CommandType='"Text"', CommandTimeout='30']
SELECT EXISTS (
    SELECT 1
    FROM "ToDoItems" AS "t")
2022-09-06 15:25:41.660 +07:00 [INF] Executed DbCommand (0ms) [Parameters=[], CommandType='"Text"', CommandTimeout='30']
SELECT "p"."Id", "p"."Name", "p"."Priority"
FROM "Projects" AS "p"
2022-09-06 15:25:41.663 +07:00 [INF] Executed DbCommand (0ms) [Parameters=[], CommandType='"Text"', CommandTimeout='30']
SELECT "t"."Id", "t"."Description", "t"."IsDone", "t"."ProjectId", "t"."Title"
FROM "ToDoItems" AS "t"
2022-09-06 15:25:41.768 +07:00 [INF] Executed DbCommand (3ms) [Parameters=[@p0='?' (Size = 12), @p1='?' (DbType = Int32)], CommandType='"Text"', CommandTimeout='30']
INSERT INTO "Projects" ("Name", "Priority")
VALUES (@p0, @p1);
SELECT "Id"
FROM "Projects"
WHERE changes() = 1 AND "rowid" = last_insert_rowid();
2022-09-06 15:25:41.785 +07:00 [INF] Executed DbCommand (0ms) [Parameters=[@p2='?' (Size = 31), @p3='?' (DbType = Boolean), @p4='?' (DbType = Int32), @p5='?' (Size = 18)], CommandType='"Text"', CommandTimeout='30']
INSERT INTO "ToDoItems" ("Description", "IsDone", "ProjectId", "Title")
VALUES (@p2, @p3, @p4, @p5);
SELECT "Id"
FROM "ToDoItems"
WHERE changes() = 1 AND "rowid" = last_insert_rowid();
2022-09-06 15:25:41.786 +07:00 [INF] Executed DbCommand (0ms) [Parameters=[@p0='?' (Size = 81), @p1='?' (DbType = Boolean), @p2='?' (DbType = Int32), @p3='?' (Size = 15)], CommandType='"Text"', CommandTimeout='30']
INSERT INTO "ToDoItems" ("Description", "IsDone", "ProjectId", "Title")
VALUES (@p0, @p1, @p2, @p3);
SELECT "Id"
FROM "ToDoItems"
WHERE changes() = 1 AND "rowid" = last_insert_rowid();
2022-09-06 15:25:41.786 +07:00 [INF] Executed DbCommand (0ms) [Parameters=[@p0='?' (Size = 59), @p1='?' (DbType = Boolean), @p2='?' (DbType = Int32), @p3='?' (Size = 20)], CommandType='"Text"', CommandTimeout='30']
INSERT INTO "ToDoItems" ("Description", "IsDone", "ProjectId", "Title")
VALUES (@p0, @p1, @p2, @p3);
SELECT "Id"
FROM "ToDoItems"
WHERE changes() = 1 AND "rowid" = last_insert_rowid();
2022-09-06 15:25:41.841 +07:00 [INF] Now listening on: http://localhost:57679
2022-09-06 15:25:41.843 +07:00 [INF] Application started. Press Ctrl+C to shut down.
2022-09-06 15:25:41.843 +07:00 [INF] Hosting environment: Development
2022-09-06 15:25:41.843 +07:00 [INF] Content root path: /Users/maulana/Data/Refactory/BSI/BSI.ServiceApp/src/BSI.ServiceApp.Web/
2022-09-06 15:26:33.920 +07:00 [INF] Request starting HTTP/1.1 GET http://localhost:57679/ - -
2022-09-06 15:26:33.971 +07:00 [WRN] Failed to determine the https port for redirect.
2022-09-06 15:26:34.009 +07:00 [INF] Executing endpoint 'BSI.ServiceApp.Web.Controllers.HomeController.Index (BSI.ServiceApp.Web)'
2022-09-06 15:26:34.044 +07:00 [INF] Route matched with {action = "Index", controller = "Home", page = ""}. Executing controller action with signature Microsoft.AspNetCore.Mvc.IActionResult Index() on controller BSI.ServiceApp.Web.Controllers.HomeController (BSI.ServiceApp.Web).
2022-09-06 15:26:34.054 +07:00 [INF] Executing ViewResult, running view Index.
2022-09-06 15:26:34.170 +07:00 [INF] Executed ViewResult - view Index executed in 117.9625ms.
2022-09-06 15:26:34.171 +07:00 [INF] Executed action BSI.ServiceApp.Web.Controllers.HomeController.Index (BSI.ServiceApp.Web) in 126.2944ms
2022-09-06 15:26:34.171 +07:00 [INF] Executed endpoint 'BSI.ServiceApp.Web.Controllers.HomeController.Index (BSI.ServiceApp.Web)'
2022-09-06 15:26:34.176 +07:00 [INF] Request finished HTTP/1.1 GET http://localhost:57679/ - - - 200 - text/html;+charset=utf-8 257.7974ms
2022-09-06 15:26:34.190 +07:00 [INF] Request starting HTTP/1.1 GET http://localhost:57679/BSI.ServiceApp.Web.styles.css?v=Gj1VxQ13Dye8gUFfYRqCY_opgrnyLWGdw3BO1Wjmkzo - -
2022-09-06 15:26:34.193 +07:00 [INF] Request starting HTTP/1.1 GET http://localhost:57679/lib/bootstrap/dist/css/bootstrap.min.css - -
2022-09-06 15:26:34.194 +07:00 [INF] Request starting HTTP/1.1 GET http://localhost:57679/css/site.css?v=AKvNjO3dCPPS0eSU1Ez8T2wI280i08yGycV9ndytL-c - -
2022-09-06 15:26:34.194 +07:00 [INF] Request starting HTTP/1.1 GET http://localhost:57679/lib/jquery/dist/jquery.min.js - -
2022-09-06 15:26:34.194 +07:00 [INF] Request starting HTTP/1.1 GET http://localhost:57679/lib/bootstrap/dist/js/bootstrap.bundle.min.js - -
2022-09-06 15:26:34.195 +07:00 [INF] Request starting HTTP/1.1 GET http://localhost:57679/js/site.js?v=4q1jwFhaPaZgr8WAUSrux6hAuh0XDg9kPS3xIVq36I0 - -
2022-09-06 15:26:34.200 +07:00 [INF] Sending file. Request path: '/js/site.js'. Physical path: '/Users/maulana/Data/Refactory/BSI/BSI.ServiceApp/src/BSI.ServiceApp.Web/wwwroot/js/site.js'
2022-09-06 15:26:34.200 +07:00 [INF] Sending file. Request path: '/lib/jquery/dist/jquery.min.js'. Physical path: '/Users/maulana/Data/Refactory/BSI/BSI.ServiceApp/src/BSI.ServiceApp.Web/wwwroot/lib/jquery/dist/jquery.min.js'
2022-09-06 15:26:34.200 +07:00 [INF] Sending file. Request path: '/lib/bootstrap/dist/js/bootstrap.bundle.min.js'. Physical path: '/Users/maulana/Data/Refactory/BSI/BSI.ServiceApp/src/BSI.ServiceApp.Web/wwwroot/lib/bootstrap/dist/js/bootstrap.bundle.min.js'
2022-09-06 15:26:34.200 +07:00 [INF] Sending file. Request path: '/css/site.css'. Physical path: '/Users/maulana/Data/Refactory/BSI/BSI.ServiceApp/src/BSI.ServiceApp.Web/wwwroot/css/site.css'
2022-09-06 15:26:34.200 +07:00 [INF] Sending file. Request path: '/BSI.ServiceApp.Web.styles.css'. Physical path: '/Users/maulana/Data/Refactory/BSI/BSI.ServiceApp/src/BSI.ServiceApp.Web/obj/Debug/net6.0/scopedcss/bundle/BSI.ServiceApp.Web.styles.css'
2022-09-06 15:26:34.200 +07:00 [INF] Sending file. Request path: '/lib/bootstrap/dist/css/bootstrap.min.css'. Physical path: '/Users/maulana/Data/Refactory/BSI/BSI.ServiceApp/src/BSI.ServiceApp.Web/wwwroot/lib/bootstrap/dist/css/bootstrap.min.css'
2022-09-06 15:26:34.201 +07:00 [INF] Request finished HTTP/1.1 GET http://localhost:57679/lib/jquery/dist/jquery.min.js - - - 200 89478 application/javascript 7.1154ms
2022-09-06 15:26:34.201 +07:00 [INF] Request finished HTTP/1.1 GET http://localhost:57679/css/site.css?v=AKvNjO3dCPPS0eSU1Ez8T2wI280i08yGycV9ndytL-c - - - 200 194 text/css 7.2542ms
2022-09-06 15:26:34.201 +07:00 [INF] Request finished HTTP/1.1 GET http://localhost:57679/BSI.ServiceApp.Web.styles.css?v=Gj1VxQ13Dye8gUFfYRqCY_opgrnyLWGdw3BO1Wjmkzo - - - 200 1086 text/css 10.9202ms
2022-09-06 15:26:34.201 +07:00 [INF] Request finished HTTP/1.1 GET http://localhost:57679/js/site.js?v=4q1jwFhaPaZgr8WAUSrux6hAuh0XDg9kPS3xIVq36I0 - - - 200 230 application/javascript 6.7377ms
2022-09-06 15:26:34.201 +07:00 [INF] Request finished HTTP/1.1 GET http://localhost:57679/lib/bootstrap/dist/css/bootstrap.min.css - - - 200 162726 text/css 8.0441ms
2022-09-06 15:26:34.201 +07:00 [INF] Request finished HTTP/1.1 GET http://localhost:57679/lib/bootstrap/dist/js/bootstrap.bundle.min.js - - - 200 78474 application/javascript 7.0391ms
2022-09-06 15:26:34.239 +07:00 [INF] Request starting HTTP/1.1 GET http://localhost:57679/favicon.ico - -
2022-09-06 15:26:34.240 +07:00 [INF] Sending file. Request path: '/favicon.ico'. Physical path: '/Users/maulana/Data/Refactory/BSI/BSI.ServiceApp/src/BSI.ServiceApp.Web/wwwroot/favicon.ico'
2022-09-06 15:26:34.240 +07:00 [INF] Request finished HTTP/1.1 GET http://localhost:57679/favicon.ico - - - 200 5430 image/x-icon 1.6269ms
2022-09-06 15:27:23.801 +07:00 [INF] Request starting HTTP/1.1 GET http://localhost:57679/ - -
2022-09-06 15:27:23.832 +07:00 [INF] Executing endpoint 'BSI.ServiceApp.Web.Controllers.HomeController.Index (BSI.ServiceApp.Web)'
2022-09-06 15:27:23.843 +07:00 [INF] Route matched with {action = "Index", controller = "Home", page = ""}. Executing controller action with signature Microsoft.AspNetCore.Mvc.IActionResult Index() on controller BSI.ServiceApp.Web.Controllers.HomeController (BSI.ServiceApp.Web).
2022-09-06 15:27:23.846 +07:00 [INF] Executing ViewResult, running view Index.
2022-09-06 15:27:23.850 +07:00 [INF] Executed ViewResult - view Index executed in 5.0686ms.
2022-09-06 15:27:23.850 +07:00 [INF] Executed action BSI.ServiceApp.Web.Controllers.HomeController.Index (BSI.ServiceApp.Web) in 6.8139ms
2022-09-06 15:27:23.850 +07:00 [INF] Executed endpoint 'BSI.ServiceApp.Web.Controllers.HomeController.Index (BSI.ServiceApp.Web)'
2022-09-06 15:27:23.850 +07:00 [INF] Request finished HTTP/1.1 GET http://localhost:57679/ - - - 200 - text/html;+charset=utf-8 49.8992ms
2022-09-06 15:27:23.882 +07:00 [INF] Request starting HTTP/1.1 GET http://localhost:57679/lib/bootstrap/dist/css/bootstrap.min.css - -
2022-09-06 15:27:23.886 +07:00 [INF] Request starting HTTP/1.1 GET http://localhost:57679/BSI.ServiceApp.Web.styles.css?v=Gj1VxQ13Dye8gUFfYRqCY_opgrnyLWGdw3BO1Wjmkzo - -
2022-09-06 15:27:23.889 +07:00 [INF] Request starting HTTP/1.1 GET http://localhost:57679/lib/bootstrap/dist/js/bootstrap.bundle.min.js - -
2022-09-06 15:27:23.893 +07:00 [INF] Request starting HTTP/1.1 GET http://localhost:57679/css/site.css?v=AKvNjO3dCPPS0eSU1Ez8T2wI280i08yGycV9ndytL-c - -
2022-09-06 15:27:23.893 +07:00 [INF] Request starting HTTP/1.1 GET http://localhost:57679/lib/jquery/dist/jquery.min.js - -
2022-09-06 15:27:23.893 +07:00 [INF] Request starting HTTP/1.1 GET http://localhost:57679/js/site.js?v=4q1jwFhaPaZgr8WAUSrux6hAuh0XDg9kPS3xIVq36I0 - -
2022-09-06 15:27:23.900 +07:00 [INF] The file /css/site.css was not modified
2022-09-06 15:27:23.900 +07:00 [INF] The file /lib/bootstrap/dist/css/bootstrap.min.css was not modified
2022-09-06 15:27:23.900 +07:00 [INF] The file /lib/bootstrap/dist/js/bootstrap.bundle.min.js was not modified
2022-09-06 15:27:23.901 +07:00 [INF] Request finished HTTP/1.1 GET http://localhost:57679/lib/bootstrap/dist/js/bootstrap.bundle.min.js - - - 304 - application/javascript 11.0705ms
2022-09-06 15:27:23.901 +07:00 [INF] The file /BSI.ServiceApp.Web.styles.css was not modified
2022-09-06 15:27:23.901 +07:00 [INF] Request finished HTTP/1.1 GET http://localhost:57679/css/site.css?v=AKvNjO3dCPPS0eSU1Ez8T2wI280i08yGycV9ndytL-c - - - 304 - text/css 8.0692ms
2022-09-06 15:27:23.901 +07:00 [INF] Request finished HTTP/1.1 GET http://localhost:57679/lib/bootstrap/dist/css/bootstrap.min.css - - - 304 - text/css 18.5277ms
2022-09-06 15:27:23.901 +07:00 [INF] Request finished HTTP/1.1 GET http://localhost:57679/BSI.ServiceApp.Web.styles.css?v=Gj1VxQ13Dye8gUFfYRqCY_opgrnyLWGdw3BO1Wjmkzo - - - 304 - text/css 14.5287ms
2022-09-06 15:27:23.901 +07:00 [INF] The file /js/site.js was not modified
2022-09-06 15:27:23.901 +07:00 [INF] The file /lib/jquery/dist/jquery.min.js was not modified
2022-09-06 15:27:23.919 +07:00 [INF] Request finished HTTP/1.1 GET http://localhost:57679/js/site.js?v=4q1jwFhaPaZgr8WAUSrux6hAuh0XDg9kPS3xIVq36I0 - - - 304 - application/javascript 26.2820ms
2022-09-06 15:27:23.919 +07:00 [INF] Request finished HTTP/1.1 GET http://localhost:57679/lib/jquery/dist/jquery.min.js - - - 304 - application/javascript 26.4020ms
2022-09-06 15:27:23.930 +07:00 [INF] Request starting HTTP/1.1 GET http://localhost:57679/favicon.ico - -
2022-09-06 15:27:23.930 +07:00 [INF] The file /favicon.ico was not modified
2022-09-06 15:27:23.930 +07:00 [INF] Request finished HTTP/1.1 GET http://localhost:57679/favicon.ico - - - 304 - image/x-icon 0.2762ms
2022-09-06 15:27:24.190 +07:00 [INF] Request starting HTTP/1.1 GET http://localhost:57679/ - -
2022-09-06 15:27:24.194 +07:00 [INF] Executing endpoint 'BSI.ServiceApp.Web.Controllers.HomeController.Index (BSI.ServiceApp.Web)'
2022-09-06 15:27:24.195 +07:00 [INF] Route matched with {action = "Index", controller = "Home", page = ""}. Executing controller action with signature Microsoft.AspNetCore.Mvc.IActionResult Index() on controller BSI.ServiceApp.Web.Controllers.HomeController (BSI.ServiceApp.Web).
2022-09-06 15:27:24.195 +07:00 [INF] Executing ViewResult, running view Index.
2022-09-06 15:27:24.196 +07:00 [INF] Executed ViewResult - view Index executed in 1.433ms.
2022-09-06 15:27:24.197 +07:00 [INF] Executed action BSI.ServiceApp.Web.Controllers.HomeController.Index (BSI.ServiceApp.Web) in 1.7466ms
2022-09-06 15:27:24.197 +07:00 [INF] Executed endpoint 'BSI.ServiceApp.Web.Controllers.HomeController.Index (BSI.ServiceApp.Web)'
2022-09-06 15:27:24.197 +07:00 [INF] Request finished HTTP/1.1 GET http://localhost:57679/ - - - 200 - text/html;+charset=utf-8 7.1088ms
2022-09-06 15:27:31.131 +07:00 [INF] Request starting HTTP/1.1 GET http://localhost:57679/ProjectDetails/1 - -
2022-09-06 15:27:31.132 +07:00 [INF] Executing endpoint '/ProjectDetails/Index'
2022-09-06 15:27:31.157 +07:00 [INF] Route matched with {page = "/ProjectDetails/Index", action = "", controller = ""}. Executing page /ProjectDetails/Index
2022-09-06 15:27:31.171 +07:00 [INF] Executing handler method BSI.ServiceApp.Web.Pages.ProjectDetails.IndexModel.OnGetAsync - ModelState is "Valid"
2022-09-06 15:27:31.196 +07:00 [INF] Entity Framework Core 6.0.8 initialized 'AppDbContext' using provider 'Microsoft.EntityFrameworkCore.Sqlite:6.0.8' with options: None
2022-09-06 15:27:31.274 +07:00 [INF] Executed DbCommand (0ms) [Parameters=[@__projectId_0='?' (DbType = Int32)], CommandType='"Text"', CommandTimeout='30']
SELECT "t"."Id", "t"."Name", "t"."Priority", "t0"."Id", "t0"."Description", "t0"."IsDone", "t0"."ProjectId", "t0"."Title"
FROM (
    SELECT "p"."Id", "p"."Name", "p"."Priority"
    FROM "Projects" AS "p"
    WHERE "p"."Id" = @__projectId_0
    LIMIT 1
) AS "t"
LEFT JOIN "ToDoItems" AS "t0" ON "t"."Id" = "t0"."ProjectId"
ORDER BY "t"."Id"
2022-09-06 15:27:31.282 +07:00 [INF] Executed handler method OnGetAsync, returned result .
2022-09-06 15:27:31.284 +07:00 [INF] Executing an implicit handler method - ModelState is "Valid"
2022-09-06 15:27:31.284 +07:00 [INF] Executed an implicit handler method, returned result Microsoft.AspNetCore.Mvc.RazorPages.PageResult.
2022-09-06 15:27:31.288 +07:00 [INF] Executed page /ProjectDetails/Index in 130.4997ms
2022-09-06 15:27:31.288 +07:00 [INF] Executed endpoint '/ProjectDetails/Index'
2022-09-06 15:27:31.290 +07:00 [INF] Request finished HTTP/1.1 GET http://localhost:57679/ProjectDetails/1 - - - 200 - text/html;+charset=utf-8 159.1412ms
2022-09-06 15:27:38.228 +07:00 [INF] Request starting HTTP/1.1 GET http://localhost:57679/ProjectDetails/Incomplete - -
2022-09-06 15:27:38.236 +07:00 [INF] Executing endpoint '/ProjectDetails/Incomplete'
2022-09-06 15:27:38.243 +07:00 [INF] Route matched with {page = "/ProjectDetails/Incomplete", action = "", controller = ""}. Executing page /ProjectDetails/Incomplete
2022-09-06 15:27:38.244 +07:00 [INF] Executing handler method BSI.ServiceApp.Web.Pages.ProjectDetails.IncompleteModel.OnGetAsync - ModelState is "Valid"
2022-09-06 15:27:38.245 +07:00 [INF] Entity Framework Core 6.0.8 initialized 'AppDbContext' using provider 'Microsoft.EntityFrameworkCore.Sqlite:6.0.8' with options: None
2022-09-06 15:27:38.247 +07:00 [INF] Executed DbCommand (0ms) [Parameters=[@__projectId_0='?' (DbType = Int32)], CommandType='"Text"', CommandTimeout='30']
SELECT "t"."Id", "t"."Name", "t"."Priority", "t0"."Id", "t0"."Description", "t0"."IsDone", "t0"."ProjectId", "t0"."Title"
FROM (
    SELECT "p"."Id", "p"."Name", "p"."Priority"
    FROM "Projects" AS "p"
    WHERE "p"."Id" = @__projectId_0
    LIMIT 1
) AS "t"
LEFT JOIN "ToDoItems" AS "t0" ON "t"."Id" = "t0"."ProjectId"
ORDER BY "t"."Id"
2022-09-06 15:27:38.247 +07:00 [INF] Executed handler method OnGetAsync, returned result .
2022-09-06 15:27:38.247 +07:00 [INF] Executing an implicit handler method - ModelState is "Valid"
2022-09-06 15:27:38.247 +07:00 [INF] Executed an implicit handler method, returned result Microsoft.AspNetCore.Mvc.RazorPages.PageResult.
2022-09-06 15:27:38.250 +07:00 [INF] Executed page /ProjectDetails/Incomplete in 6.7891ms
2022-09-06 15:27:38.250 +07:00 [INF] Executed endpoint '/ProjectDetails/Incomplete'
2022-09-06 15:27:38.250 +07:00 [INF] Request finished HTTP/1.1 GET http://localhost:57679/ProjectDetails/Incomplete - - - 200 - text/html;+charset=utf-8 22.7472ms
2022-09-06 15:27:38.271 +07:00 [INF] Request starting HTTP/1.1 GET http://localhost:57679/BSI.ServiceApp.Web.styles.css?v=Gj1VxQ13Dye8gUFfYRqCY_opgrnyLWGdw3BO1Wjmkzo - -
2022-09-06 15:27:38.271 +07:00 [INF] The file /BSI.ServiceApp.Web.styles.css was not modified
2022-09-06 15:27:38.271 +07:00 [INF] Request finished HTTP/1.1 GET http://localhost:57679/BSI.ServiceApp.Web.styles.css?v=Gj1VxQ13Dye8gUFfYRqCY_opgrnyLWGdw3BO1Wjmkzo - - - 304 - text/css 0.5943ms
2022-09-06 15:27:40.451 +07:00 [INF] Request starting HTTP/1.1 GET http://localhost:57679/swagger - -
2022-09-06 15:27:40.454 +07:00 [INF] Request finished HTTP/1.1 GET http://localhost:57679/swagger - - - 301 0 - 3.1445ms
2022-09-06 15:27:40.457 +07:00 [INF] Request starting HTTP/1.1 GET http://localhost:57679/swagger/index.html - -
2022-09-06 15:27:40.492 +07:00 [INF] Request finished HTTP/1.1 GET http://localhost:57679/swagger/index.html - - - 200 - text/html;charset=utf-8 35.0016ms
2022-09-06 15:27:40.504 +07:00 [INF] Request starting HTTP/1.1 GET http://localhost:57679/swagger/swagger-ui.css - -
2022-09-06 15:27:40.504 +07:00 [INF] Request starting HTTP/1.1 GET http://localhost:57679/swagger/swagger-ui-bundle.js - -
2022-09-06 15:27:40.505 +07:00 [INF] Request starting HTTP/1.1 GET http://localhost:57679/swagger/swagger-ui-standalone-preset.js - -
2022-09-06 15:27:40.507 +07:00 [INF] Sending file. Request path: '/swagger-ui.css'. Physical path: 'N/A'
2022-09-06 15:27:40.507 +07:00 [INF] Request finished HTTP/1.1 GET http://localhost:57679/swagger/swagger-ui.css - - - 200 143943 text/css 3.7601ms
2022-09-06 15:27:40.508 +07:00 [INF] Sending file. Request path: '/swagger-ui-standalone-preset.js'. Physical path: 'N/A'
2022-09-06 15:27:40.508 +07:00 [INF] Request finished HTTP/1.1 GET http://localhost:57679/swagger/swagger-ui-standalone-preset.js - - - 200 339486 application/javascript 2.9177ms
2022-09-06 15:27:40.510 +07:00 [INF] Sending file. Request path: '/swagger-ui-bundle.js'. Physical path: 'N/A'
2022-09-06 15:27:40.510 +07:00 [INF] Request finished HTTP/1.1 GET http://localhost:57679/swagger/swagger-ui-bundle.js - - - 200 1095087 application/javascript 6.0635ms
2022-09-06 15:27:40.593 +07:00 [INF] Request starting HTTP/1.1 GET http://localhost:57679/swagger/favicon-32x32.png - -
2022-09-06 15:27:40.593 +07:00 [INF] Sending file. Request path: '/favicon-32x32.png'. Physical path: 'N/A'
2022-09-06 15:27:40.593 +07:00 [INF] Request finished HTTP/1.1 GET http://localhost:57679/swagger/favicon-32x32.png - - - 200 628 image/png 0.4065ms
2022-09-06 15:27:40.676 +07:00 [INF] Request starting HTTP/1.1 GET http://localhost:57679/swagger/v1/swagger.json - -
2022-09-06 15:27:40.743 +07:00 [INF] Request finished HTTP/1.1 GET http://localhost:57679/swagger/v1/swagger.json - - - 200 - application/json;charset=utf-8 66.2921ms
2022-09-06 15:28:15.733 +07:00 [INF] Request starting HTTP/1.1 GET http://localhost:57679/api/Projects - -
2022-09-06 15:28:15.740 +07:00 [INF] Executing endpoint 'BSI.ServiceApp.Web.Api.ProjectsController.List (BSI.ServiceApp.Web)'
2022-09-06 15:28:15.754 +07:00 [INF] Route matched with {action = "List", controller = "Projects", page = ""}. Executing controller action with signature System.Threading.Tasks.Task`1[Microsoft.AspNetCore.Mvc.IActionResult] List() on controller BSI.ServiceApp.Web.Api.ProjectsController (BSI.ServiceApp.Web).
2022-09-06 15:28:15.757 +07:00 [INF] Entity Framework Core 6.0.8 initialized 'AppDbContext' using provider 'Microsoft.EntityFrameworkCore.Sqlite:6.0.8' with options: None
2022-09-06 15:28:15.763 +07:00 [INF] Executed DbCommand (0ms) [Parameters=[], CommandType='"Text"', CommandTimeout='30']
SELECT "p"."Id", "p"."Name", "p"."Priority"
FROM "Projects" AS "p"
2022-09-06 15:28:15.765 +07:00 [INF] Executing OkObjectResult, writing value of type 'System.Collections.Generic.List`1[[BSI.ServiceApp.Web.ApiModels.ProjectDTO, BSI.ServiceApp.Web, Version=1.0.0.0, Culture=neutral, PublicKeyToken=null]]'.
2022-09-06 15:28:15.851 +07:00 [INF] Executed action BSI.ServiceApp.Web.Api.ProjectsController.List (BSI.ServiceApp.Web) in 97.1288ms
2022-09-06 15:28:15.852 +07:00 [INF] Executed endpoint 'BSI.ServiceApp.Web.Api.ProjectsController.List (BSI.ServiceApp.Web)'
2022-09-06 15:28:15.852 +07:00 [INF] Request finished HTTP/1.1 GET http://localhost:57679/api/Projects - - - 200 43 application/json;+charset=utf-8 118.6197ms
2022-09-06 15:28:23.087 +07:00 [INF] Request starting HTTP/1.1 POST http://localhost:57679/api/Projects application/json-patch+json 22
2022-09-06 15:28:23.092 +07:00 [INF] Executing endpoint 'BSI.ServiceApp.Web.Api.ProjectsController.Post (BSI.ServiceApp.Web)'
2022-09-06 15:28:23.104 +07:00 [INF] Route matched with {action = "Post", controller = "Projects", page = ""}. Executing controller action with signature System.Threading.Tasks.Task`1[Microsoft.AspNetCore.Mvc.IActionResult] Post(BSI.ServiceApp.Web.ApiModels.CreateProjectDTO) on controller BSI.ServiceApp.Web.Api.ProjectsController (BSI.ServiceApp.Web).
2022-09-06 15:28:23.130 +07:00 [INF] Executing BadRequestObjectResult, writing value of type 'Microsoft.AspNetCore.Mvc.ValidationProblemDetails'.
2022-09-06 15:28:23.141 +07:00 [INF] Executed action BSI.ServiceApp.Web.Api.ProjectsController.Post (BSI.ServiceApp.Web) in 36.9865ms
2022-09-06 15:28:23.141 +07:00 [INF] Executed endpoint 'BSI.ServiceApp.Web.Api.ProjectsController.Post (BSI.ServiceApp.Web)'
2022-09-06 15:28:23.141 +07:00 [INF] Request finished HTTP/1.1 POST http://localhost:57679/api/Projects application/json-patch+json 22 - 400 442 application/problem+json;+charset=utf-8 54.1490ms
2022-09-06 15:28:28.146 +07:00 [INF] Request starting HTTP/1.1 GET http://localhost:57679/api/Projects - -
2022-09-06 15:28:28.155 +07:00 [INF] Executing endpoint 'BSI.ServiceApp.Web.Api.ProjectsController.List (BSI.ServiceApp.Web)'
2022-09-06 15:28:28.155 +07:00 [INF] Route matched with {action = "List", controller = "Projects", page = ""}. Executing controller action with signature System.Threading.Tasks.Task`1[Microsoft.AspNetCore.Mvc.IActionResult] List() on controller BSI.ServiceApp.Web.Api.ProjectsController (BSI.ServiceApp.Web).
2022-09-06 15:28:28.158 +07:00 [INF] Entity Framework Core 6.0.8 initialized 'AppDbContext' using provider 'Microsoft.EntityFrameworkCore.Sqlite:6.0.8' with options: None
2022-09-06 15:28:28.159 +07:00 [INF] Executed DbCommand (0ms) [Parameters=[], CommandType='"Text"', CommandTimeout='30']
SELECT "p"."Id", "p"."Name", "p"."Priority"
FROM "Projects" AS "p"
2022-09-06 15:28:28.159 +07:00 [INF] Executing OkObjectResult, writing value of type 'System.Collections.Generic.List`1[[BSI.ServiceApp.Web.ApiModels.ProjectDTO, BSI.ServiceApp.Web, Version=1.0.0.0, Culture=neutral, PublicKeyToken=null]]'.
2022-09-06 15:28:28.159 +07:00 [INF] Executed action BSI.ServiceApp.Web.Api.ProjectsController.List (BSI.ServiceApp.Web) in 3.5333ms
2022-09-06 15:28:28.161 +07:00 [INF] Executed endpoint 'BSI.ServiceApp.Web.Api.ProjectsController.List (BSI.ServiceApp.Web)'
2022-09-06 15:28:28.161 +07:00 [INF] Request finished HTTP/1.1 GET http://localhost:57679/api/Projects - - - 200 43 application/json;+charset=utf-8 15.5976ms
2022-09-06 15:28:38.284 +07:00 [INF] Request starting HTTP/1.1 GET http://localhost:57679/api/Projects - -
2022-09-06 15:28:38.293 +07:00 [INF] Executing endpoint 'BSI.ServiceApp.Web.Api.ProjectsController.List (BSI.ServiceApp.Web)'
2022-09-06 15:28:38.294 +07:00 [INF] Route matched with {action = "List", controller = "Projects", page = ""}. Executing controller action with signature System.Threading.Tasks.Task`1[Microsoft.AspNetCore.Mvc.IActionResult] List() on controller BSI.ServiceApp.Web.Api.ProjectsController (BSI.ServiceApp.Web).
2022-09-06 15:28:38.309 +07:00 [INF] Entity Framework Core 6.0.8 initialized 'AppDbContext' using provider 'Microsoft.EntityFrameworkCore.Sqlite:6.0.8' with options: None
2022-09-06 15:28:38.310 +07:00 [INF] Executed DbCommand (0ms) [Parameters=[], CommandType='"Text"', CommandTimeout='30']
SELECT "p"."Id", "p"."Name", "p"."Priority"
FROM "Projects" AS "p"
2022-09-06 15:28:38.311 +07:00 [INF] Executing OkObjectResult, writing value of type 'System.Collections.Generic.List`1[[BSI.ServiceApp.Web.ApiModels.ProjectDTO, BSI.ServiceApp.Web, Version=1.0.0.0, Culture=neutral, PublicKeyToken=null]]'.
2022-09-06 15:28:38.312 +07:00 [INF] Executed action BSI.ServiceApp.Web.Api.ProjectsController.List (BSI.ServiceApp.Web) in 17.5432ms
2022-09-06 15:28:38.312 +07:00 [INF] Executed endpoint 'BSI.ServiceApp.Web.Api.ProjectsController.List (BSI.ServiceApp.Web)'
2022-09-06 15:28:38.312 +07:00 [INF] Request finished HTTP/1.1 GET http://localhost:57679/api/Projects - - - 200 43 application/json;+charset=utf-8 28.0760ms
2022-09-06 15:28:41.379 +07:00 [INF] Request starting HTTP/1.1 POST http://localhost:57679/api/Projects application/json-patch+json 22
2022-09-06 15:28:41.379 +07:00 [INF] Executing endpoint 'BSI.ServiceApp.Web.Api.ProjectsController.Post (BSI.ServiceApp.Web)'
2022-09-06 15:28:41.379 +07:00 [INF] Route matched with {action = "Post", controller = "Projects", page = ""}. Executing controller action with signature System.Threading.Tasks.Task`1[Microsoft.AspNetCore.Mvc.IActionResult] Post(BSI.ServiceApp.Web.ApiModels.CreateProjectDTO) on controller BSI.ServiceApp.Web.Api.ProjectsController (BSI.ServiceApp.Web).
2022-09-06 15:28:41.393 +07:00 [INF] Executing BadRequestObjectResult, writing value of type 'Microsoft.AspNetCore.Mvc.ValidationProblemDetails'.
2022-09-06 15:28:41.393 +07:00 [INF] Executed action BSI.ServiceApp.Web.Api.ProjectsController.Post (BSI.ServiceApp.Web) in 1.4581ms
2022-09-06 15:28:41.393 +07:00 [INF] Executed endpoint 'BSI.ServiceApp.Web.Api.ProjectsController.Post (BSI.ServiceApp.Web)'
2022-09-06 15:28:41.393 +07:00 [INF] Request finished HTTP/1.1 POST http://localhost:57679/api/Projects application/json-patch+json 22 - 400 442 application/problem+json;+charset=utf-8 14.6536ms
2022-09-06 15:28:42.148 +07:00 [INF] Request starting HTTP/1.1 POST http://localhost:57679/api/Projects application/json-patch+json 22
2022-09-06 15:28:42.151 +07:00 [INF] Executing endpoint 'BSI.ServiceApp.Web.Api.ProjectsController.Post (BSI.ServiceApp.Web)'
2022-09-06 15:28:42.154 +07:00 [INF] Route matched with {action = "Post", controller = "Projects", page = ""}. Executing controller action with signature System.Threading.Tasks.Task`1[Microsoft.AspNetCore.Mvc.IActionResult] Post(BSI.ServiceApp.Web.ApiModels.CreateProjectDTO) on controller BSI.ServiceApp.Web.Api.ProjectsController (BSI.ServiceApp.Web).
2022-09-06 15:28:42.160 +07:00 [INF] Executing BadRequestObjectResult, writing value of type 'Microsoft.AspNetCore.Mvc.ValidationProblemDetails'.
2022-09-06 15:28:42.161 +07:00 [INF] Executed action BSI.ServiceApp.Web.Api.ProjectsController.Post (BSI.ServiceApp.Web) in 7.5144ms
2022-09-06 15:28:42.162 +07:00 [INF] Executed endpoint 'BSI.ServiceApp.Web.Api.ProjectsController.Post (BSI.ServiceApp.Web)'
2022-09-06 15:28:42.162 +07:00 [INF] Request finished HTTP/1.1 POST http://localhost:57679/api/Projects application/json-patch+json 22 - 400 442 application/problem+json;+charset=utf-8 14.5404ms
2022-09-06 15:28:42.423 +07:00 [INF] Request starting HTTP/1.1 POST http://localhost:57679/api/Projects application/json-patch+json 22
2022-09-06 15:28:42.424 +07:00 [INF] Executing endpoint 'BSI.ServiceApp.Web.Api.ProjectsController.Post (BSI.ServiceApp.Web)'
2022-09-06 15:28:42.424 +07:00 [INF] Route matched with {action = "Post", controller = "Projects", page = ""}. Executing controller action with signature System.Threading.Tasks.Task`1[Microsoft.AspNetCore.Mvc.IActionResult] Post(BSI.ServiceApp.Web.ApiModels.CreateProjectDTO) on controller BSI.ServiceApp.Web.Api.ProjectsController (BSI.ServiceApp.Web).
2022-09-06 15:28:42.425 +07:00 [INF] Executing BadRequestObjectResult, writing value of type 'Microsoft.AspNetCore.Mvc.ValidationProblemDetails'.
2022-09-06 15:28:42.426 +07:00 [INF] Executed action BSI.ServiceApp.Web.Api.ProjectsController.Post (BSI.ServiceApp.Web) in 1.9307ms
2022-09-06 15:28:42.427 +07:00 [INF] Executed endpoint 'BSI.ServiceApp.Web.Api.ProjectsController.Post (BSI.ServiceApp.Web)'
2022-09-06 15:28:42.427 +07:00 [INF] Request finished HTTP/1.1 POST http://localhost:57679/api/Projects application/json-patch+json 22 - 400 442 application/problem+json;+charset=utf-8 3.2870ms
2022-09-06 15:28:42.678 +07:00 [INF] Request starting HTTP/1.1 POST http://localhost:57679/api/Projects application/json-patch+json 22
2022-09-06 15:28:42.678 +07:00 [INF] Executing endpoint 'BSI.ServiceApp.Web.Api.ProjectsController.Post (BSI.ServiceApp.Web)'
2022-09-06 15:28:42.679 +07:00 [INF] Route matched with {action = "Post", controller = "Projects", page = ""}. Executing controller action with signature System.Threading.Tasks.Task`1[Microsoft.AspNetCore.Mvc.IActionResult] Post(BSI.ServiceApp.Web.ApiModels.CreateProjectDTO) on controller BSI.ServiceApp.Web.Api.ProjectsController (BSI.ServiceApp.Web).
2022-09-06 15:28:42.682 +07:00 [INF] Executing BadRequestObjectResult, writing value of type 'Microsoft.AspNetCore.Mvc.ValidationProblemDetails'.
2022-09-06 15:28:42.683 +07:00 [INF] Executed action BSI.ServiceApp.Web.Api.ProjectsController.Post (BSI.ServiceApp.Web) in 3.2269ms
2022-09-06 15:28:42.683 +07:00 [INF] Executed endpoint 'BSI.ServiceApp.Web.Api.ProjectsController.Post (BSI.ServiceApp.Web)'
2022-09-06 15:28:42.683 +07:00 [INF] Request finished HTTP/1.1 POST http://localhost:57679/api/Projects application/json-patch+json 22 - 400 442 application/problem+json;+charset=utf-8 4.9989ms
2022-09-06 15:28:45.408 +07:00 [INF] Request starting HTTP/1.1 POST http://localhost:57679/api/Projects application/json-patch+json 22
2022-09-06 15:28:45.414 +07:00 [INF] Executing endpoint 'BSI.ServiceApp.Web.Api.ProjectsController.Post (BSI.ServiceApp.Web)'
2022-09-06 15:28:45.418 +07:00 [INF] Route matched with {action = "Post", controller = "Projects", page = ""}. Executing controller action with signature System.Threading.Tasks.Task`1[Microsoft.AspNetCore.Mvc.IActionResult] Post(BSI.ServiceApp.Web.ApiModels.CreateProjectDTO) on controller BSI.ServiceApp.Web.Api.ProjectsController (BSI.ServiceApp.Web).
2022-09-06 15:28:45.427 +07:00 [INF] Executing BadRequestObjectResult, writing value of type 'Microsoft.AspNetCore.Mvc.ValidationProblemDetails'.
2022-09-06 15:28:45.429 +07:00 [INF] Executed action BSI.ServiceApp.Web.Api.ProjectsController.Post (BSI.ServiceApp.Web) in 7.2979ms
2022-09-06 15:28:45.429 +07:00 [INF] Executed endpoint 'BSI.ServiceApp.Web.Api.ProjectsController.Post (BSI.ServiceApp.Web)'
2022-09-06 15:28:45.429 +07:00 [INF] Request finished HTTP/1.1 POST http://localhost:57679/api/Projects application/json-patch+json 22 - 400 442 application/problem+json;+charset=utf-8 20.8721ms
2022-09-06 15:28:45.832 +07:00 [INF] Request starting HTTP/1.1 POST http://localhost:57679/api/Projects application/json-patch+json 22
2022-09-06 15:28:45.832 +07:00 [INF] Executing endpoint 'BSI.ServiceApp.Web.Api.ProjectsController.Post (BSI.ServiceApp.Web)'
2022-09-06 15:28:45.833 +07:00 [INF] Route matched with {action = "Post", controller = "Projects", page = ""}. Executing controller action with signature System.Threading.Tasks.Task`1[Microsoft.AspNetCore.Mvc.IActionResult] Post(BSI.ServiceApp.Web.ApiModels.CreateProjectDTO) on controller BSI.ServiceApp.Web.Api.ProjectsController (BSI.ServiceApp.Web).
2022-09-06 15:28:45.834 +07:00 [INF] Executing BadRequestObjectResult, writing value of type 'Microsoft.AspNetCore.Mvc.ValidationProblemDetails'.
2022-09-06 15:28:45.834 +07:00 [INF] Executed action BSI.ServiceApp.Web.Api.ProjectsController.Post (BSI.ServiceApp.Web) in 1.1516ms
2022-09-06 15:28:45.834 +07:00 [INF] Executed endpoint 'BSI.ServiceApp.Web.Api.ProjectsController.Post (BSI.ServiceApp.Web)'
2022-09-06 15:28:45.834 +07:00 [INF] Request finished HTTP/1.1 POST http://localhost:57679/api/Projects application/json-patch+json 22 - 400 442 application/problem+json;+charset=utf-8 2.1422ms
2022-09-06 15:28:58.897 +07:00 [INF] Request starting HTTP/1.1 POST http://localhost:57679/api/Projects application/json-patch+json 23
2022-09-06 15:28:58.900 +07:00 [INF] Executing endpoint 'BSI.ServiceApp.Web.Api.ProjectsController.Post (BSI.ServiceApp.Web)'
2022-09-06 15:28:58.901 +07:00 [INF] Route matched with {action = "Post", controller = "Projects", page = ""}. Executing controller action with signature System.Threading.Tasks.Task`1[Microsoft.AspNetCore.Mvc.IActionResult] Post(BSI.ServiceApp.Web.ApiModels.CreateProjectDTO) on controller BSI.ServiceApp.Web.Api.ProjectsController (BSI.ServiceApp.Web).
2022-09-06 15:28:58.907 +07:00 [INF] Executing BadRequestObjectResult, writing value of type 'Microsoft.AspNetCore.Mvc.ValidationProblemDetails'.
2022-09-06 15:28:58.909 +07:00 [INF] Executed action BSI.ServiceApp.Web.Api.ProjectsController.Post (BSI.ServiceApp.Web) in 6.5127ms
2022-09-06 15:28:58.909 +07:00 [INF] Executed endpoint 'BSI.ServiceApp.Web.Api.ProjectsController.Post (BSI.ServiceApp.Web)'
2022-09-06 15:28:58.910 +07:00 [INF] Request finished HTTP/1.1 POST http://localhost:57679/api/Projects application/json-patch+json 23 - 400 442 application/problem+json;+charset=utf-8 12.5065ms
2022-09-06 15:29:15.299 +07:00 [INF] Request starting HTTP/1.1 POST http://localhost:57679/api/Projects application/json 23
2022-09-06 15:29:15.300 +07:00 [INF] Executing endpoint 'BSI.ServiceApp.Web.Api.ProjectsController.Post (BSI.ServiceApp.Web)'
2022-09-06 15:29:15.308 +07:00 [INF] Route matched with {action = "Post", controller = "Projects", page = ""}. Executing controller action with signature System.Threading.Tasks.Task`1[Microsoft.AspNetCore.Mvc.IActionResult] Post(BSI.ServiceApp.Web.ApiModels.CreateProjectDTO) on controller BSI.ServiceApp.Web.Api.ProjectsController (BSI.ServiceApp.Web).
2022-09-06 15:29:15.310 +07:00 [INF] Executing BadRequestObjectResult, writing value of type 'Microsoft.AspNetCore.Mvc.ValidationProblemDetails'.
2022-09-06 15:29:15.310 +07:00 [INF] Executed action BSI.ServiceApp.Web.Api.ProjectsController.Post (BSI.ServiceApp.Web) in 1.3766ms
2022-09-06 15:29:15.312 +07:00 [INF] Executed endpoint 'BSI.ServiceApp.Web.Api.ProjectsController.Post (BSI.ServiceApp.Web)'
2022-09-06 15:29:15.312 +07:00 [INF] Request finished HTTP/1.1 POST http://localhost:57679/api/Projects application/json 23 - 400 442 application/problem+json;+charset=utf-8 13.0973ms
2022-09-06 15:29:42.567 +07:00 [INF] Request starting HTTP/1.1 POST http://localhost:57679/api/Projects application/*+json 23
2022-09-06 15:29:42.570 +07:00 [INF] Executing endpoint 'BSI.ServiceApp.Web.Api.ProjectsController.Post (BSI.ServiceApp.Web)'
2022-09-06 15:29:42.572 +07:00 [INF] Route matched with {action = "Post", controller = "Projects", page = ""}. Executing controller action with signature System.Threading.Tasks.Task`1[Microsoft.AspNetCore.Mvc.IActionResult] Post(BSI.ServiceApp.Web.ApiModels.CreateProjectDTO) on controller BSI.ServiceApp.Web.Api.ProjectsController (BSI.ServiceApp.Web).
2022-09-06 15:29:42.583 +07:00 [INF] Executing BadRequestObjectResult, writing value of type 'Microsoft.AspNetCore.Mvc.ValidationProblemDetails'.
2022-09-06 15:29:42.584 +07:00 [INF] Executed action BSI.ServiceApp.Web.Api.ProjectsController.Post (BSI.ServiceApp.Web) in 11.3225ms
2022-09-06 15:29:42.584 +07:00 [INF] Executed endpoint 'BSI.ServiceApp.Web.Api.ProjectsController.Post (BSI.ServiceApp.Web)'
2022-09-06 15:29:42.584 +07:00 [INF] Request finished HTTP/1.1 POST http://localhost:57679/api/Projects application/*+json 23 - 400 442 application/problem+json;+charset=utf-8 17.6661ms
2022-09-06 15:29:46.762 +07:00 [INF] Request starting HTTP/1.1 POST http://localhost:57679/api/Projects application/json-patch+json 23
2022-09-06 15:29:46.763 +07:00 [INF] Executing endpoint 'BSI.ServiceApp.Web.Api.ProjectsController.Post (BSI.ServiceApp.Web)'
2022-09-06 15:29:46.763 +07:00 [INF] Route matched with {action = "Post", controller = "Projects", page = ""}. Executing controller action with signature System.Threading.Tasks.Task`1[Microsoft.AspNetCore.Mvc.IActionResult] Post(BSI.ServiceApp.Web.ApiModels.CreateProjectDTO) on controller BSI.ServiceApp.Web.Api.ProjectsController (BSI.ServiceApp.Web).
2022-09-06 15:29:46.769 +07:00 [INF] Executing BadRequestObjectResult, writing value of type 'Microsoft.AspNetCore.Mvc.ValidationProblemDetails'.
2022-09-06 15:29:46.770 +07:00 [INF] Executed action BSI.ServiceApp.Web.Api.ProjectsController.Post (BSI.ServiceApp.Web) in 6.3366ms
2022-09-06 15:29:46.770 +07:00 [INF] Executed endpoint 'BSI.ServiceApp.Web.Api.ProjectsController.Post (BSI.ServiceApp.Web)'
2022-09-06 15:29:46.770 +07:00 [INF] Request finished HTTP/1.1 POST http://localhost:57679/api/Projects application/json-patch+json 23 - 400 442 application/problem+json;+charset=utf-8 8.2953ms
2022-09-06 15:30:01.542 +07:00 [INF] Request starting HTTP/1.1 POST http://localhost:57679/Projects application/json-patch+json 22
2022-09-06 15:30:01.550 +07:00 [INF] Executing endpoint 'BSI.ServiceApp.Web.Endpoints.ProjectEndpoints.Create.HandleAsync (BSI.ServiceApp.Web)'
2022-09-06 15:30:01.565 +07:00 [INF] Route matched with {action = "Handle", controller = "Create", page = ""}. Executing controller action with signature System.Threading.Tasks.Task`1[Microsoft.AspNetCore.Mvc.ActionResult`1[BSI.ServiceApp.Web.Endpoints.ProjectEndpoints.CreateProjectResponse]] HandleAsync(BSI.ServiceApp.Web.Endpoints.ProjectEndpoints.CreateProjectRequest, System.Threading.CancellationToken) on controller BSI.ServiceApp.Web.Endpoints.ProjectEndpoints.Create (BSI.ServiceApp.Web).
2022-09-06 15:30:01.580 +07:00 [INF] Entity Framework Core 6.0.8 initialized 'AppDbContext' using provider 'Microsoft.EntityFrameworkCore.Sqlite:6.0.8' with options: None
2022-09-06 15:30:01.583 +07:00 [INF] Executed DbCommand (0ms) [Parameters=[@p0='?' (Size = 6), @p1='?' (DbType = Int32)], CommandType='"Text"', CommandTimeout='30']
INSERT INTO "Projects" ("Name", "Priority")
VALUES (@p0, @p1);
SELECT "Id"
FROM "Projects"
WHERE changes() = 1 AND "rowid" = last_insert_rowid();
2022-09-06 15:30:01.587 +07:00 [INF] Executing OkObjectResult, writing value of type 'BSI.ServiceApp.Web.Endpoints.ProjectEndpoints.CreateProjectResponse'.
2022-09-06 15:30:01.589 +07:00 [INF] Executed action BSI.ServiceApp.Web.Endpoints.ProjectEndpoints.Create.HandleAsync (BSI.ServiceApp.Web) in 23.6009ms
2022-09-06 15:30:01.589 +07:00 [INF] Executed endpoint 'BSI.ServiceApp.Web.Endpoints.ProjectEndpoints.Create.HandleAsync (BSI.ServiceApp.Web)'
2022-09-06 15:30:01.589 +07:00 [INF] Request finished HTTP/1.1 POST http://localhost:57679/Projects application/json-patch+json 22 - 200 24 application/json;+charset=utf-8 46.8611ms
2022-09-06 15:30:07.776 +07:00 [INF] Request starting HTTP/1.1 POST http://localhost:57679/Projects application/json-patch+json 21
2022-09-06 15:30:07.782 +07:00 [INF] Executing endpoint 'BSI.ServiceApp.Web.Endpoints.ProjectEndpoints.Create.HandleAsync (BSI.ServiceApp.Web)'
2022-09-06 15:30:07.784 +07:00 [INF] Route matched with {action = "Handle", controller = "Create", page = ""}. Executing controller action with signature System.Threading.Tasks.Task`1[Microsoft.AspNetCore.Mvc.ActionResult`1[BSI.ServiceApp.Web.Endpoints.ProjectEndpoints.CreateProjectResponse]] HandleAsync(BSI.ServiceApp.Web.Endpoints.ProjectEndpoints.CreateProjectRequest, System.Threading.CancellationToken) on controller BSI.ServiceApp.Web.Endpoints.ProjectEndpoints.Create (BSI.ServiceApp.Web).
2022-09-06 15:30:07.792 +07:00 [INF] Entity Framework Core 6.0.8 initialized 'AppDbContext' using provider 'Microsoft.EntityFrameworkCore.Sqlite:6.0.8' with options: None
2022-09-06 15:30:07.796 +07:00 [INF] Executed DbCommand (0ms) [Parameters=[@p0='?' (Size = 5), @p1='?' (DbType = Int32)], CommandType='"Text"', CommandTimeout='30']
INSERT INTO "Projects" ("Name", "Priority")
VALUES (@p0, @p1);
SELECT "Id"
FROM "Projects"
WHERE changes() = 1 AND "rowid" = last_insert_rowid();
2022-09-06 15:30:07.798 +07:00 [INF] Executing OkObjectResult, writing value of type 'BSI.ServiceApp.Web.Endpoints.ProjectEndpoints.CreateProjectResponse'.
2022-09-06 15:30:07.798 +07:00 [INF] Executed action BSI.ServiceApp.Web.Endpoints.ProjectEndpoints.Create.HandleAsync (BSI.ServiceApp.Web) in 13.0492ms
2022-09-06 15:30:07.798 +07:00 [INF] Executed endpoint 'BSI.ServiceApp.Web.Endpoints.ProjectEndpoints.Create.HandleAsync (BSI.ServiceApp.Web)'
2022-09-06 15:30:07.798 +07:00 [INF] Request finished HTTP/1.1 POST http://localhost:57679/Projects application/json-patch+json 21 - 200 23 application/json;+charset=utf-8 22.9423ms
2022-09-06 15:30:11.210 +07:00 [INF] Request starting HTTP/1.1 GET http://localhost:57679/api/Projects - -
2022-09-06 15:30:11.211 +07:00 [INF] Executing endpoint 'BSI.ServiceApp.Web.Api.ProjectsController.List (BSI.ServiceApp.Web)'
2022-09-06 15:30:11.211 +07:00 [INF] Route matched with {action = "List", controller = "Projects", page = ""}. Executing controller action with signature System.Threading.Tasks.Task`1[Microsoft.AspNetCore.Mvc.IActionResult] List() on controller BSI.ServiceApp.Web.Api.ProjectsController (BSI.ServiceApp.Web).
2022-09-06 15:30:11.219 +07:00 [INF] Entity Framework Core 6.0.8 initialized 'AppDbContext' using provider 'Microsoft.EntityFrameworkCore.Sqlite:6.0.8' with options: None
2022-09-06 15:30:11.221 +07:00 [INF] Executed DbCommand (0ms) [Parameters=[], CommandType='"Text"', CommandTimeout='30']
SELECT "p"."Id", "p"."Name", "p"."Priority"
FROM "Projects" AS "p"
2022-09-06 15:30:11.221 +07:00 [INF] Executing OkObjectResult, writing value of type 'System.Collections.Generic.List`1[[BSI.ServiceApp.Web.ApiModels.ProjectDTO, BSI.ServiceApp.Web, Version=1.0.0.0, Culture=neutral, PublicKeyToken=null]]'.
2022-09-06 15:30:11.221 +07:00 [INF] Executed action BSI.ServiceApp.Web.Api.ProjectsController.List (BSI.ServiceApp.Web) in 9.4615ms
2022-09-06 15:30:11.223 +07:00 [INF] Executed endpoint 'BSI.ServiceApp.Web.Api.ProjectsController.List (BSI.ServiceApp.Web)'
2022-09-06 15:30:11.223 +07:00 [INF] Request finished HTTP/1.1 GET http://localhost:57679/api/Projects - - - 200 114 application/json;+charset=utf-8 12.5158ms
2022-09-06 15:30:20.467 +07:00 [INF] Request starting HTTP/1.1 GET http://localhost:57679/Projects - -
2022-09-06 15:30:20.477 +07:00 [INF] Executing endpoint 'BSI.ServiceApp.Web.Endpoints.ProjectEndpoints.List.HandleAsync (BSI.ServiceApp.Web)'
2022-09-06 15:30:20.491 +07:00 [INF] Route matched with {action = "Handle", controller = "List", page = ""}. Executing controller action with signature System.Threading.Tasks.Task`1[Microsoft.AspNetCore.Mvc.ActionResult`1[BSI.ServiceApp.Web.Endpoints.ProjectEndpoints.ProjectListResponse]] HandleAsync(System.Threading.CancellationToken) on controller BSI.ServiceApp.Web.Endpoints.ProjectEndpoints.List (BSI.ServiceApp.Web).
2022-09-06 15:30:20.493 +07:00 [INF] Entity Framework Core 6.0.8 initialized 'AppDbContext' using provider 'Microsoft.EntityFrameworkCore.Sqlite:6.0.8' with options: None
2022-09-06 15:30:20.493 +07:00 [INF] Executed DbCommand (0ms) [Parameters=[], CommandType='"Text"', CommandTimeout='30']
SELECT "p"."Id", "p"."Name", "p"."Priority"
FROM "Projects" AS "p"
2022-09-06 15:30:20.494 +07:00 [INF] Executing OkObjectResult, writing value of type 'BSI.ServiceApp.Web.Endpoints.ProjectEndpoints.ProjectListResponse'.
2022-09-06 15:30:20.496 +07:00 [INF] Executed action BSI.ServiceApp.Web.Endpoints.ProjectEndpoints.List.HandleAsync (BSI.ServiceApp.Web) in 4.6862ms
2022-09-06 15:30:20.496 +07:00 [INF] Executed endpoint 'BSI.ServiceApp.Web.Endpoints.ProjectEndpoints.List.HandleAsync (BSI.ServiceApp.Web)'
2022-09-06 15:30:20.496 +07:00 [INF] Request finished HTTP/1.1 GET http://localhost:57679/Projects - - - 200 94 application/json;+charset=utf-8 29.0443ms
2022-09-06 15:38:54.388 +07:00 [INF] Application is shutting down...
2022-09-06 15:40:10.412 +07:00 [INF] Entity Framework Core 6.0.8 initialized 'AppDbContext' using provider 'Microsoft.EntityFrameworkCore.Sqlite:6.0.8' with options: None
2022-09-06 15:40:10.509 +07:00 [INF] Executed DbCommand (8ms) [Parameters=[], CommandType='"Text"', CommandTimeout='30']
SELECT COUNT(*) FROM "sqlite_master" WHERE "type" = 'table' AND "rootpage" IS NOT NULL;
2022-09-06 15:40:10.515 +07:00 [INF] Entity Framework Core 6.0.8 initialized 'AppDbContext' using provider 'Microsoft.EntityFrameworkCore.Sqlite:6.0.8' with options: None
2022-09-06 15:40:10.630 +07:00 [INF] Executed DbCommand (0ms) [Parameters=[], CommandType='"Text"', CommandTimeout='30']
SELECT EXISTS (
    SELECT 1
    FROM "ToDoItems" AS "t")
2022-09-06 15:40:10.641 +07:00 [INF] User profile is available. Using '/Users/maulana/.aspnet/DataProtection-Keys' as key repository; keys will not be encrypted at rest.
2022-09-06 15:40:10.673 +07:00 [INF] Now listening on: http://localhost:57679
2022-09-06 15:40:10.674 +07:00 [INF] Application started. Press Ctrl+C to shut down.
2022-09-06 15:40:10.675 +07:00 [INF] Hosting environment: Development
2022-09-06 15:40:10.675 +07:00 [INF] Content root path: /Users/maulana/Data/Refactory/BSI/BSI.ServiceApp/src/BSI.ServiceApp.Web/
2022-09-06 15:40:14.735 +07:00 [INF] Request starting HTTP/1.1 GET http://localhost:57679/swagger/index.html - -
2022-09-06 15:40:14.788 +07:00 [WRN] Failed to determine the https port for redirect.
2022-09-06 15:40:14.835 +07:00 [INF] Request finished HTTP/1.1 GET http://localhost:57679/swagger/index.html - - - 200 - text/html;charset=utf-8 102.6034ms
2022-09-06 15:40:15.193 +07:00 [INF] Request starting HTTP/1.1 GET http://localhost:57679/swagger/v1/swagger.json - -
2022-09-06 15:40:15.287 +07:00 [INF] Request finished HTTP/1.1 GET http://localhost:57679/swagger/v1/swagger.json - - - 200 - application/json;charset=utf-8 93.9094ms
2022-09-06 15:40:23.882 +07:00 [INF] Request starting HTTP/1.1 POST http://localhost:57679/Projects application/json-patch+json 22
2022-09-06 15:40:23.889 +07:00 [INF] Request finished HTTP/1.1 POST http://localhost:57679/Projects application/json-patch+json 22 - 404 0 - 6.7918ms
2022-09-06 15:40:25.619 +07:00 [INF] Request starting HTTP/1.1 POST http://localhost:57679/Projects application/json-patch+json 22
2022-09-06 15:40:25.624 +07:00 [INF] Request finished HTTP/1.1 POST http://localhost:57679/Projects application/json-patch+json 22 - 404 0 - 5.7725ms
2022-09-06 15:40:26.990 +07:00 [INF] Request starting HTTP/1.1 POST http://localhost:57679/Projects application/json-patch+json 22
2022-09-06 15:40:26.993 +07:00 [INF] Request finished HTTP/1.1 POST http://localhost:57679/Projects application/json-patch+json 22 - 404 0 - 2.5437ms
2022-09-06 15:40:28.198 +07:00 [INF] Request starting HTTP/1.1 POST http://localhost:57679/Projects application/json-patch+json 22
2022-09-06 15:40:28.199 +07:00 [INF] Request finished HTTP/1.1 POST http://localhost:57679/Projects application/json-patch+json 22 - 404 0 - 0.6169ms
2022-09-06 15:40:28.669 +07:00 [INF] Request starting HTTP/1.1 POST http://localhost:57679/Projects application/json-patch+json 22
2022-09-06 15:40:28.673 +07:00 [INF] Request finished HTTP/1.1 POST http://localhost:57679/Projects application/json-patch+json 22 - 404 0 - 3.3832ms
2022-09-06 15:40:28.889 +07:00 [INF] Request starting HTTP/1.1 POST http://localhost:57679/Projects application/json-patch+json 22
2022-09-06 15:40:28.889 +07:00 [INF] Request finished HTTP/1.1 POST http://localhost:57679/Projects application/json-patch+json 22 - 404 0 - 0.5122ms
2022-09-06 15:40:29.127 +07:00 [INF] Request starting HTTP/1.1 POST http://localhost:57679/Projects application/json-patch+json 22
2022-09-06 15:40:29.128 +07:00 [INF] Request finished HTTP/1.1 POST http://localhost:57679/Projects application/json-patch+json 22 - 404 0 - 0.5370ms
2022-09-06 15:40:29.294 +07:00 [INF] Request starting HTTP/1.1 POST http://localhost:57679/Projects application/json-patch+json 22
2022-09-06 15:40:29.295 +07:00 [INF] Request finished HTTP/1.1 POST http://localhost:57679/Projects application/json-patch+json 22 - 404 0 - 1.4510ms
2022-09-06 15:40:29.476 +07:00 [INF] Request starting HTTP/1.1 POST http://localhost:57679/Projects application/json-patch+json 22
2022-09-06 15:40:29.477 +07:00 [INF] Request finished HTTP/1.1 POST http://localhost:57679/Projects application/json-patch+json 22 - 404 0 - 0.3041ms
2022-09-06 15:40:29.683 +07:00 [INF] Request starting HTTP/1.1 POST http://localhost:57679/Projects application/json-patch+json 22
2022-09-06 15:40:29.683 +07:00 [INF] Request finished HTTP/1.1 POST http://localhost:57679/Projects application/json-patch+json 22 - 404 0 - 0.5028ms
2022-09-06 15:40:36.520 +07:00 [INF] Request starting HTTP/1.1 GET http://localhost:57679/Projects - -
2022-09-06 15:40:36.523 +07:00 [INF] Request finished HTTP/1.1 GET http://localhost:57679/Projects - - - 404 0 - 3.5660ms
2022-09-06 15:40:38.098 +07:00 [INF] Request starting HTTP/1.1 GET http://localhost:57679/Projects - -
2022-09-06 15:40:38.098 +07:00 [INF] Request finished HTTP/1.1 GET http://localhost:57679/Projects - - - 404 0 - 0.5477ms
2022-09-06 15:53:29.510 +07:00 [INF] Application is shutting down...
2022-09-06 15:53:45.331 +07:00 [INF] User profile is available. Using '/Users/maulana/.aspnet/DataProtection-Keys' as key repository; keys will not be encrypted at rest.
2022-09-06 15:53:45.833 +07:00 [INF] Entity Framework Core 6.0.8 initialized 'AppDbContext' using provider 'Microsoft.EntityFrameworkCore.Sqlite:6.0.8' with options: None
2022-09-06 15:53:45.909 +07:00 [INF] Executed DbCommand (25ms) [Parameters=[], CommandType='"Text"', CommandTimeout='30']
SELECT COUNT(*) FROM "sqlite_master" WHERE "type" = 'table' AND "rootpage" IS NOT NULL;
2022-09-06 15:53:45.927 +07:00 [INF] Entity Framework Core 6.0.8 initialized 'AppDbContext' using provider 'Microsoft.EntityFrameworkCore.Sqlite:6.0.8' with options: None
2022-09-06 15:53:46.051 +07:00 [INF] Executed DbCommand (0ms) [Parameters=[], CommandType='"Text"', CommandTimeout='30']
SELECT EXISTS (
    SELECT 1
    FROM "ToDoItems" AS "t")
2022-09-06 15:53:46.092 +07:00 [INF] Now listening on: http://localhost:57679
2022-09-06 15:53:46.107 +07:00 [INF] Application started. Press Ctrl+C to shut down.
2022-09-06 15:53:46.107 +07:00 [INF] Hosting environment: Development
2022-09-06 15:53:46.107 +07:00 [INF] Content root path: /Users/maulana/Data/Refactory/BSI/BSI.ServiceApp/src/BSI.ServiceApp.Web/
2022-09-06 15:54:00.650 +07:00 [INF] Request starting HTTP/1.1 GET http://localhost:57679/swagger/index.html - -
2022-09-06 15:54:00.694 +07:00 [WRN] Failed to determine the https port for redirect.
2022-09-06 15:54:00.751 +07:00 [INF] Request finished HTTP/1.1 GET http://localhost:57679/swagger/index.html - - - 200 - text/html;charset=utf-8 103.0548ms
2022-09-06 15:54:01.102 +07:00 [INF] Request starting HTTP/1.1 GET http://localhost:57679/swagger/v1/swagger.json - -
2022-09-06 15:54:01.144 +07:00 [ERR] An unhandled exception has occurred while executing the request.
Swashbuckle.AspNetCore.SwaggerGen.SwaggerGeneratorException: Failed to generate Operation for action - BSI.ServiceApp.Web.Endpoints.TodoEndpoints.GetById.HandleAsync (BSI.ServiceApp.Web). See inner exception
 ---> Swashbuckle.AspNetCore.SwaggerGen.SwaggerGeneratorException: Failed to generate schema for type - BSI.ServiceApp.Web.Endpoints.TodoEndpoints.GetProjectByIdResponse. See inner exception
 ---> System.InvalidOperationException: Can't use schemaId "$GetProjectByIdResponse" for type "$BSI.ServiceApp.Web.Endpoints.TodoEndpoints.GetProjectByIdResponse". The same schemaId is already used for type "$BSI.ServiceApp.Web.Endpoints.ProjectEndpoints.GetProjectByIdResponse"
   at Swashbuckle.AspNetCore.SwaggerGen.SchemaRepository.RegisterType(Type type, String schemaId)
   at Swashbuckle.AspNetCore.SwaggerGen.SchemaGenerator.GenerateReferencedSchema(DataContract dataContract, SchemaRepository schemaRepository, Func`1 definitionFactory)
   at Swashbuckle.AspNetCore.SwaggerGen.SchemaGenerator.GenerateConcreteSchema(DataContract dataContract, SchemaRepository schemaRepository)
   at Swashbuckle.AspNetCore.SwaggerGen.SchemaGenerator.GenerateSchemaForType(Type modelType, SchemaRepository schemaRepository)
   at Swashbuckle.AspNetCore.SwaggerGen.SchemaGenerator.GenerateSchema(Type modelType, SchemaRepository schemaRepository, MemberInfo memberInfo, ParameterInfo parameterInfo, ApiParameterRouteInfo routeInfo)
   at Swashbuckle.AspNetCore.SwaggerGen.SwaggerGenerator.GenerateSchema(Type type, SchemaRepository schemaRepository, PropertyInfo propertyInfo, ParameterInfo parameterInfo, ApiParameterRouteInfo routeInfo)
   --- End of inner exception stack trace ---
   at Swashbuckle.AspNetCore.SwaggerGen.SwaggerGenerator.GenerateSchema(Type type, SchemaRepository schemaRepository, PropertyInfo propertyInfo, ParameterInfo parameterInfo, ApiParameterRouteInfo routeInfo)
   at Swashbuckle.AspNetCore.SwaggerGen.SwaggerGenerator.CreateResponseMediaType(ModelMetadata modelMetadata, SchemaRepository schemaRespository)
   at Swashbuckle.AspNetCore.SwaggerGen.SwaggerGenerator.<>c__DisplayClass19_0.<GenerateResponse>b__2(String contentType)
   at System.Linq.Enumerable.ToDictionary[TSource,TKey,TElement](IEnumerable`1 source, Func`2 keySelector, Func`2 elementSelector, IEqualityComparer`1 comparer)
   at System.Linq.Enumerable.ToDictionary[TSource,TKey,TElement](IEnumerable`1 source, Func`2 keySelector, Func`2 elementSelector)
   at Swashbuckle.AspNetCore.SwaggerGen.SwaggerGenerator.GenerateResponse(ApiDescription apiDescription, SchemaRepository schemaRepository, String statusCode, ApiResponseType apiResponseType)
   at Swashbuckle.AspNetCore.SwaggerGen.SwaggerGenerator.GenerateResponses(ApiDescription apiDescription, SchemaRepository schemaRepository)
   at Swashbuckle.AspNetCore.SwaggerGen.SwaggerGenerator.GenerateOperation(ApiDescription apiDescription, SchemaRepository schemaRepository)
   --- End of inner exception stack trace ---
   at Swashbuckle.AspNetCore.SwaggerGen.SwaggerGenerator.GenerateOperation(ApiDescription apiDescription, SchemaRepository schemaRepository)
   at Swashbuckle.AspNetCore.SwaggerGen.SwaggerGenerator.GenerateOperations(IEnumerable`1 apiDescriptions, SchemaRepository schemaRepository)
   at Swashbuckle.AspNetCore.SwaggerGen.SwaggerGenerator.GeneratePaths(IEnumerable`1 apiDescriptions, SchemaRepository schemaRepository)
   at Swashbuckle.AspNetCore.SwaggerGen.SwaggerGenerator.GetSwagger(String documentName, String host, String basePath)
   at Swashbuckle.AspNetCore.Swagger.SwaggerMiddleware.Invoke(HttpContext httpContext, ISwaggerProvider swaggerProvider)
   at Ardalis.ListStartupServices.ShowAllServicesMiddleware.Invoke(HttpContext httpContext)
   at Microsoft.AspNetCore.Diagnostics.DeveloperExceptionPageMiddleware.Invoke(HttpContext context)
2022-09-06 15:54:01.154 +07:00 [INF] Request finished HTTP/1.1 GET http://localhost:57679/swagger/v1/swagger.json - - - 500 - text/plain;+charset=utf-8 52.6645ms
2022-09-06 15:54:05.812 +07:00 [INF] Request starting HTTP/1.1 GET http://localhost:57679/swagger/index.html - -
2022-09-06 15:54:05.824 +07:00 [INF] Request finished HTTP/1.1 GET http://localhost:57679/swagger/index.html - - - 200 - text/html;charset=utf-8 15.5384ms
2022-09-06 15:54:06.356 +07:00 [INF] Request starting HTTP/1.1 GET http://localhost:57679/swagger/v1/swagger.json - -
2022-09-06 15:54:06.374 +07:00 [ERR] An unhandled exception has occurred while executing the request.
Swashbuckle.AspNetCore.SwaggerGen.SwaggerGeneratorException: Failed to generate Operation for action - BSI.ServiceApp.Web.Endpoints.TodoEndpoints.GetById.HandleAsync (BSI.ServiceApp.Web). See inner exception
 ---> Swashbuckle.AspNetCore.SwaggerGen.SwaggerGeneratorException: Failed to generate schema for type - BSI.ServiceApp.Web.Endpoints.TodoEndpoints.GetProjectByIdResponse. See inner exception
 ---> System.InvalidOperationException: Can't use schemaId "$GetProjectByIdResponse" for type "$BSI.ServiceApp.Web.Endpoints.TodoEndpoints.GetProjectByIdResponse". The same schemaId is already used for type "$BSI.ServiceApp.Web.Endpoints.ProjectEndpoints.GetProjectByIdResponse"
   at Swashbuckle.AspNetCore.SwaggerGen.SchemaRepository.RegisterType(Type type, String schemaId)
   at Swashbuckle.AspNetCore.SwaggerGen.SchemaGenerator.GenerateReferencedSchema(DataContract dataContract, SchemaRepository schemaRepository, Func`1 definitionFactory)
   at Swashbuckle.AspNetCore.SwaggerGen.SchemaGenerator.GenerateConcreteSchema(DataContract dataContract, SchemaRepository schemaRepository)
   at Swashbuckle.AspNetCore.SwaggerGen.SchemaGenerator.GenerateSchemaForType(Type modelType, SchemaRepository schemaRepository)
   at Swashbuckle.AspNetCore.SwaggerGen.SchemaGenerator.GenerateSchema(Type modelType, SchemaRepository schemaRepository, MemberInfo memberInfo, ParameterInfo parameterInfo, ApiParameterRouteInfo routeInfo)
   at Swashbuckle.AspNetCore.SwaggerGen.SwaggerGenerator.GenerateSchema(Type type, SchemaRepository schemaRepository, PropertyInfo propertyInfo, ParameterInfo parameterInfo, ApiParameterRouteInfo routeInfo)
   --- End of inner exception stack trace ---
   at Swashbuckle.AspNetCore.SwaggerGen.SwaggerGenerator.GenerateSchema(Type type, SchemaRepository schemaRepository, PropertyInfo propertyInfo, ParameterInfo parameterInfo, ApiParameterRouteInfo routeInfo)
   at Swashbuckle.AspNetCore.SwaggerGen.SwaggerGenerator.CreateResponseMediaType(ModelMetadata modelMetadata, SchemaRepository schemaRespository)
   at Swashbuckle.AspNetCore.SwaggerGen.SwaggerGenerator.<>c__DisplayClass19_0.<GenerateResponse>b__2(String contentType)
   at System.Linq.Enumerable.ToDictionary[TSource,TKey,TElement](IEnumerable`1 source, Func`2 keySelector, Func`2 elementSelector, IEqualityComparer`1 comparer)
   at System.Linq.Enumerable.ToDictionary[TSource,TKey,TElement](IEnumerable`1 source, Func`2 keySelector, Func`2 elementSelector)
   at Swashbuckle.AspNetCore.SwaggerGen.SwaggerGenerator.GenerateResponse(ApiDescription apiDescription, SchemaRepository schemaRepository, String statusCode, ApiResponseType apiResponseType)
   at Swashbuckle.AspNetCore.SwaggerGen.SwaggerGenerator.GenerateResponses(ApiDescription apiDescription, SchemaRepository schemaRepository)
   at Swashbuckle.AspNetCore.SwaggerGen.SwaggerGenerator.GenerateOperation(ApiDescription apiDescription, SchemaRepository schemaRepository)
   --- End of inner exception stack trace ---
   at Swashbuckle.AspNetCore.SwaggerGen.SwaggerGenerator.GenerateOperation(ApiDescription apiDescription, SchemaRepository schemaRepository)
   at Swashbuckle.AspNetCore.SwaggerGen.SwaggerGenerator.GenerateOperations(IEnumerable`1 apiDescriptions, SchemaRepository schemaRepository)
   at Swashbuckle.AspNetCore.SwaggerGen.SwaggerGenerator.GeneratePaths(IEnumerable`1 apiDescriptions, SchemaRepository schemaRepository)
   at Swashbuckle.AspNetCore.SwaggerGen.SwaggerGenerator.GetSwagger(String documentName, String host, String basePath)
   at Swashbuckle.AspNetCore.Swagger.SwaggerMiddleware.Invoke(HttpContext httpContext, ISwaggerProvider swaggerProvider)
   at Ardalis.ListStartupServices.ShowAllServicesMiddleware.Invoke(HttpContext httpContext)
   at Microsoft.AspNetCore.Diagnostics.DeveloperExceptionPageMiddleware.Invoke(HttpContext context)
2022-09-06 15:54:06.378 +07:00 [INF] Request finished HTTP/1.1 GET http://localhost:57679/swagger/v1/swagger.json - - - 500 - text/plain;+charset=utf-8 21.7530ms
2022-09-06 15:55:39.062 +07:00 [INF] Application is shutting down...
2022-09-06 15:55:46.884 +07:00 [INF] User profile is available. Using '/Users/maulana/.aspnet/DataProtection-Keys' as key repository; keys will not be encrypted at rest.
2022-09-06 15:55:47.395 +07:00 [INF] Entity Framework Core 6.0.8 initialized 'AppDbContext' using provider 'Microsoft.EntityFrameworkCore.Sqlite:6.0.8' with options: None
2022-09-06 15:55:47.436 +07:00 [INF] Executed DbCommand (6ms) [Parameters=[], CommandType='"Text"', CommandTimeout='30']
SELECT COUNT(*) FROM "sqlite_master" WHERE "type" = 'table' AND "rootpage" IS NOT NULL;
2022-09-06 15:55:47.442 +07:00 [INF] Entity Framework Core 6.0.8 initialized 'AppDbContext' using provider 'Microsoft.EntityFrameworkCore.Sqlite:6.0.8' with options: None
2022-09-06 15:55:47.555 +07:00 [INF] Executed DbCommand (1ms) [Parameters=[], CommandType='"Text"', CommandTimeout='30']
SELECT EXISTS (
    SELECT 1
    FROM "ToDoItems" AS "t")
2022-09-06 15:55:47.592 +07:00 [INF] Now listening on: http://localhost:57679
2022-09-06 15:55:47.594 +07:00 [INF] Application started. Press Ctrl+C to shut down.
2022-09-06 15:55:47.594 +07:00 [INF] Hosting environment: Development
2022-09-06 15:55:47.594 +07:00 [INF] Content root path: /Users/maulana/Data/Refactory/BSI/BSI.ServiceApp/src/BSI.ServiceApp.Web/
2022-09-06 15:55:50.082 +07:00 [INF] Request starting HTTP/1.1 GET http://localhost:57679/swagger/index.html - -
2022-09-06 15:55:50.101 +07:00 [WRN] Failed to determine the https port for redirect.
2022-09-06 15:55:50.151 +07:00 [INF] Request finished HTTP/1.1 GET http://localhost:57679/swagger/index.html - - - 200 - text/html;charset=utf-8 71.6227ms
2022-09-06 15:55:50.684 +07:00 [INF] Request starting HTTP/1.1 GET http://localhost:57679/swagger/v1/swagger.json - -
2022-09-06 15:55:50.744 +07:00 [INF] Request finished HTTP/1.1 GET http://localhost:57679/swagger/v1/swagger.json - - - 200 - application/json;charset=utf-8 59.2452ms
2022-09-06 15:56:03.124 +07:00 [INF] Request starting HTTP/1.1 GET http://localhost:57679/Todo/1 - -
2022-09-06 15:56:03.137 +07:00 [INF] Executing endpoint 'BSI.ServiceApp.Web.Endpoints.TodoEndpoints.GetById.HandleAsync (BSI.ServiceApp.Web)'
2022-09-06 15:56:03.155 +07:00 [INF] Route matched with {action = "Handle", controller = "GetById", page = ""}. Executing controller action with signature System.Threading.Tasks.Task`1[Microsoft.AspNetCore.Mvc.ActionResult`1[BSI.ServiceApp.Web.Endpoints.TodoEndpoints.GetTodoByIdResponse]] HandleAsync(BSI.ServiceApp.Web.Endpoints.TodoEndpoints.GetTodoByIdRequest, System.Threading.CancellationToken) on controller BSI.ServiceApp.Web.Endpoints.TodoEndpoints.GetById (BSI.ServiceApp.Web).
2022-09-06 15:56:03.204 +07:00 [INF] Entity Framework Core 6.0.8 initialized 'AppDbContext' using provider 'Microsoft.EntityFrameworkCore.Sqlite:6.0.8' with options: None
2022-09-06 15:56:03.262 +07:00 [INF] Executed DbCommand (3ms) [Parameters=[@__todoId_0='?' (DbType = Int32)], CommandType='"Text"', CommandTimeout='30']
SELECT "t"."Id", "t"."Description", "t"."IsDone", "t"."ProjectId", "t"."Title"
FROM "ToDoItems" AS "t"
WHERE "t"."Id" = @__todoId_0
LIMIT 1
2022-09-06 15:56:03.294 +07:00 [INF] Executing OkObjectResult, writing value of type 'BSI.ServiceApp.Web.Endpoints.TodoEndpoints.GetTodoByIdResponse'.
2022-09-06 15:56:03.348 +07:00 [INF] Executed action BSI.ServiceApp.Web.Endpoints.TodoEndpoints.GetById.HandleAsync (BSI.ServiceApp.Web) in 189.8738ms
2022-09-06 15:56:03.349 +07:00 [INF] Executed endpoint 'BSI.ServiceApp.Web.Endpoints.TodoEndpoints.GetById.HandleAsync (BSI.ServiceApp.Web)'
2022-09-06 15:56:03.350 +07:00 [INF] Request finished HTTP/1.1 GET http://localhost:57679/Todo/1 - - - 200 100 application/json;+charset=utf-8 225.9723ms
2022-09-06 15:58:19.240 +07:00 [INF] Application is shutting down...
2022-09-06 16:02:58.771 +07:00 [INF] User profile is available. Using '/Users/maulana/.aspnet/DataProtection-Keys' as key repository; keys will not be encrypted at rest.
2022-09-06 16:02:59.268 +07:00 [INF] Entity Framework Core 6.0.8 initialized 'AppDbContext' using provider 'Microsoft.EntityFrameworkCore.Sqlite:6.0.8' with options: None
2022-09-06 16:02:59.315 +07:00 [INF] Executed DbCommand (7ms) [Parameters=[], CommandType='"Text"', CommandTimeout='30']
SELECT COUNT(*) FROM "sqlite_master" WHERE "type" = 'table' AND "rootpage" IS NOT NULL;
2022-09-06 16:02:59.322 +07:00 [INF] Entity Framework Core 6.0.8 initialized 'AppDbContext' using provider 'Microsoft.EntityFrameworkCore.Sqlite:6.0.8' with options: None
2022-09-06 16:02:59.431 +07:00 [INF] Executed DbCommand (0ms) [Parameters=[], CommandType='"Text"', CommandTimeout='30']
SELECT EXISTS (
    SELECT 1
    FROM "ToDoItems" AS "t")
2022-09-06 16:02:59.467 +07:00 [INF] Now listening on: http://localhost:57679
2022-09-06 16:02:59.469 +07:00 [INF] Application started. Press Ctrl+C to shut down.
2022-09-06 16:02:59.469 +07:00 [INF] Hosting environment: Development
2022-09-06 16:02:59.469 +07:00 [INF] Content root path: /Users/maulana/Data/Refactory/BSI/BSI.ServiceApp/src/BSI.ServiceApp.Web/
2022-09-06 16:03:05.369 +07:00 [INF] Application is shutting down...
2022-09-06 16:05:23.719 +07:00 [INF] Entity Framework Core 6.0.8 initialized 'AppDbContext' using provider 'Microsoft.EntityFrameworkCore.Sqlite:6.0.8' with options: None
2022-09-06 16:06:19.928 +07:00 [INF] Entity Framework Core 6.0.8 initialized 'AppDbContext' using provider 'Microsoft.EntityFrameworkCore.Sqlite:6.0.8' with options: None
2022-09-06 16:06:20.041 +07:00 [INF] Executed DbCommand (11ms) [Parameters=[], CommandType='"Text"', CommandTimeout='30']
SELECT COUNT(*) FROM "sqlite_master" WHERE "name" = '__EFMigrationsHistory' AND "type" = 'table';
2022-09-06 16:06:20.126 +07:00 [INF] Executed DbCommand (1ms) [Parameters=[], CommandType='"Text"', CommandTimeout='30']
CREATE TABLE "__EFMigrationsHistory" (
    "MigrationId" TEXT NOT NULL CONSTRAINT "PK___EFMigrationsHistory" PRIMARY KEY,
    "ProductVersion" TEXT NOT NULL
);
2022-09-06 16:06:20.127 +07:00 [INF] Executed DbCommand (0ms) [Parameters=[], CommandType='"Text"', CommandTimeout='30']
SELECT COUNT(*) FROM "sqlite_master" WHERE "name" = '__EFMigrationsHistory' AND "type" = 'table';
2022-09-06 16:06:20.128 +07:00 [INF] Executed DbCommand (0ms) [Parameters=[], CommandType='"Text"', CommandTimeout='30']
SELECT "MigrationId", "ProductVersion"
FROM "__EFMigrationsHistory"
ORDER BY "MigrationId";
2022-09-06 16:06:20.137 +07:00 [INF] Applying migration '20220906090523_InitialCreate'.
2022-09-06 16:06:20.172 +07:00 [INF] Executed DbCommand (0ms) [Parameters=[], CommandType='"Text"', CommandTimeout='30']
CREATE TABLE "Hellos" (
    "Id" INTEGER NOT NULL CONSTRAINT "PK_Hellos" PRIMARY KEY AUTOINCREMENT,
    "Title" TEXT NOT NULL,
    "Description" TEXT NOT NULL,
    "IsDone" INTEGER NOT NULL
);
2022-09-06 16:06:20.173 +07:00 [ERR] Failed executing DbCommand (1ms) [Parameters=[], CommandType='"Text"', CommandTimeout='30']
CREATE TABLE "Projects" (
    "Id" INTEGER NOT NULL CONSTRAINT "PK_Projects" PRIMARY KEY AUTOINCREMENT,
    "Name" TEXT NOT NULL,
    "Priority" INTEGER NOT NULL
);
2022-09-06 16:06:36.146 +07:00 [INF] Entity Framework Core 6.0.8 initialized 'AppDbContext' using provider 'Microsoft.EntityFrameworkCore.Sqlite:6.0.8' with options: None
2022-09-06 16:06:40.729 +07:00 [INF] Entity Framework Core 6.0.8 initialized 'AppDbContext' using provider 'Microsoft.EntityFrameworkCore.Sqlite:6.0.8' with options: None
2022-09-06 16:06:47.597 +07:00 [INF] Entity Framework Core 6.0.8 initialized 'AppDbContext' using provider 'Microsoft.EntityFrameworkCore.Sqlite:6.0.8' with options: None
2022-09-06 16:06:47.679 +07:00 [INF] Executed DbCommand (7ms) [Parameters=[], CommandType='"Text"', CommandTimeout='30']
PRAGMA journal_mode = 'wal';
2022-09-06 16:06:47.748 +07:00 [INF] Executed DbCommand (1ms) [Parameters=[], CommandType='"Text"', CommandTimeout='30']
CREATE TABLE "__EFMigrationsHistory" (
    "MigrationId" TEXT NOT NULL CONSTRAINT "PK___EFMigrationsHistory" PRIMARY KEY,
    "ProductVersion" TEXT NOT NULL
);
2022-09-06 16:06:47.755 +07:00 [INF] Executed DbCommand (2ms) [Parameters=[], CommandType='"Text"', CommandTimeout='30']
SELECT COUNT(*) FROM "sqlite_master" WHERE "name" = '__EFMigrationsHistory' AND "type" = 'table';
2022-09-06 16:06:47.757 +07:00 [INF] Executed DbCommand (0ms) [Parameters=[], CommandType='"Text"', CommandTimeout='30']
SELECT "MigrationId", "ProductVersion"
FROM "__EFMigrationsHistory"
ORDER BY "MigrationId";
2022-09-06 16:06:47.765 +07:00 [INF] Applying migration '20220906090523_InitialCreate'.
2022-09-06 16:06:47.801 +07:00 [INF] Executed DbCommand (0ms) [Parameters=[], CommandType='"Text"', CommandTimeout='30']
CREATE TABLE "Hellos" (
    "Id" INTEGER NOT NULL CONSTRAINT "PK_Hellos" PRIMARY KEY AUTOINCREMENT,
    "Title" TEXT NOT NULL,
    "Description" TEXT NOT NULL,
    "IsDone" INTEGER NOT NULL
);
2022-09-06 16:06:47.801 +07:00 [INF] Executed DbCommand (0ms) [Parameters=[], CommandType='"Text"', CommandTimeout='30']
CREATE TABLE "Projects" (
    "Id" INTEGER NOT NULL CONSTRAINT "PK_Projects" PRIMARY KEY AUTOINCREMENT,
    "Name" TEXT NOT NULL,
    "Priority" INTEGER NOT NULL
);
2022-09-06 16:06:47.801 +07:00 [INF] Executed DbCommand (0ms) [Parameters=[], CommandType='"Text"', CommandTimeout='30']
CREATE TABLE "ToDoItems" (
    "Id" INTEGER NOT NULL CONSTRAINT "PK_ToDoItems" PRIMARY KEY AUTOINCREMENT,
    "Title" TEXT NOT NULL,
    "Description" TEXT NOT NULL,
    "IsDone" INTEGER NOT NULL,
    "ProjectId" INTEGER NULL,
    CONSTRAINT "FK_ToDoItems_Projects_ProjectId" FOREIGN KEY ("ProjectId") REFERENCES "Projects" ("Id")
);
2022-09-06 16:06:47.801 +07:00 [INF] Executed DbCommand (0ms) [Parameters=[], CommandType='"Text"', CommandTimeout='30']
CREATE INDEX "IX_ToDoItems_ProjectId" ON "ToDoItems" ("ProjectId");
2022-09-06 16:06:47.802 +07:00 [INF] Executed DbCommand (0ms) [Parameters=[], CommandType='"Text"', CommandTimeout='30']
INSERT INTO "__EFMigrationsHistory" ("MigrationId", "ProductVersion")
VALUES ('20220906090523_InitialCreate', '6.0.8');
